1 10 20
100 200 125
201 210 89
900 1000 174
1 1 1
2 2 2
3 3 8
4 4 3
5 5 6
10 10 7
10 50 112
50 10 112
1 999999 525
999999 1 525
13 764378 509
23432 21342 269
100 100000 351
420 696969 509
2432 29494 308
32234 24 308
999999 999999 259
340 400 126
777234 17 509
94327 640349 509
7201 409 262
100 100 26
100 101 26
4300 7801 262
69420 1 340
93200 4300 351
80 400 144
204 40000 324
90132 999200 525
1039 10039 262
700 700 83
42948 204924 383
3233 123456 354
9843 100000 351
1000 2000 182
2000 3000 217
4000 5000 215
90000 100000 333
111222 333444 443
555666 777888 509
10 1 20
200 201 27
1 1000 179
6327 823842 509
100000 700000 509
800000 900000 525
400000 800000 509
654321 123456 509
23432 23432 101
13203 78443 351
78 403203 443
32109 239831 443
43023 493022 449
328746 239849 407
45984 289348 443
101010 202020 383
78234 30293 351
987654 456789 525
9823 9823 123
12398 49734 324
324876 985383 525
100 999999 525
1000 999999 525
9842 102932 351
867530 9 525
123123 456456 449
789789 111111 509
83239 765658 509
23489 34578 311
31894 210938 383
908032 23 525
329487 483923 449
432432 98424 449
65831 999999 525
480 323 144
9 90 116
10 100000 351
900 9000 262
7777 777777 509
123 19232 279
89348 120399 354
420420 6969 449
47328 2832 324
7329 929394 525
123213 394932 443
89883 19230 351
32323 454532 449
82374 23894 351
358967 2048 443
384957 3423 443
569384 40569 470
20 30 112
40 53 110
435 893 179
435 1230 182
574 3242 217
1323 4209 238
1323 4210 238
43028 123091 354
43240 24509 324
560 570 106
98654 240938 443
945098 13209 525
658947 2904 509
209438 109438 383
57348 48931 340
345 21 144
234 12390 268
23409 12093 279
53984 12390 340
123 213 125
112 12333 268
2424 123123 354
382384 292343 441
23198 12389 279
23498 45893 324
84938 47239 351
2349 239934 443
34928 23498 311
248989 238498 368
74747 23934 340
21 1234 182
42 24241 282
38383 293489 443
89248 130980 354
100123 958323 525
2489 134032 354
348998 23409 443
894598 23409 525
893498 3498 525
3498 48297 324
34892 298347 443
3984 230923 443
489 32234 308
2348 23489 279
711 711 65
2389 4208 238
40850 2983 324
13897 234987 443
248792 9283 443
23487 239847 443
34598 237812 443
34987 19823 311
34108 239482 443
294798 249429 407
4389 13897 276
234912 340821 407
24897 23847 264
102 203 125
482 34922 311
3490 429821 449
487298 249002 449
420820 324902 449
3223 34933 311
587 3289 217
4928 32891 308
894527 290143 525
223678 23894 386
48329 10398 324
24897 109380 354
34897 120387 354
786554 989909 525
78567 438292 449
23432 23424 176
1341 234234 443
45234 2342 324
2345 23424 279
5633 3 238
553 2 144
1023 1 179
9 10 20
10 1 20
423 34222 308
2425 12313 268
849 3094 217
