...................
----------------------------------------------------------------------
Ran 19 tests in 0.236s

OK
Name             Stmts   Miss Branch BrPart  Cover   Missing
------------------------------------------------------------
Collatz.py          37      0     10      0   100%
TestCollatz.py      83      0      0      0   100%
------------------------------------------------------------
TOTAL              120      0     10      0   100%
