.............
----------------------------------------------------------------------
Ran 13 tests in 0.105s

OK
Name             Stmts   Miss Branch BrPart  Cover   Missing
------------------------------------------------------------
Collatz.py          32      0     12      0   100%
TestCollatz.py      60      0      0      0   100%
------------------------------------------------------------
TOTAL               92      0     12      0   100%
