....................
----------------------------------------------------------------------
Ran 20 tests in 0.084s

OK
Name             Stmts   Miss Branch BrPart  Cover   Missing
------------------------------------------------------------
Collatz.py          47      0     20      0   100%
TestCollatz.py      83      0      0      0   100%
------------------------------------------------------------
TOTAL              130      0     20      0   100%
